{
    "name": "libreoffice-complete",
    "modules": [
        {
            "name": "openjdk",
            "buildsystem": "simple",
            "build-commands": [
                "/usr/lib/sdk/openjdk21/install.sh"
            ]
        },
        {
            "name": "krb5",
            "subdir": "src",
            "config-opts": [
                "--disable-static",
                "--disable-rpath",
                "--sbindir=/app/bin"
            ],
            "cleanup": [
                "/include",
                "/lib/pkgconfig",
                "/var"
            ],
            "sources": [
                {
                    "type": "archive",
                    "url": "https://kerberos.org/dist/krb5/1.21/krb5-1.21.3.tar.gz",
                    "sha256": "b7a4cd5ead67fb08b980b21abd150ff7217e85ea320c9ed0c6dadd304840ad35",
                    "x-checker-data": {
                        "type": "html",
                        "url": "https://kerberos.org/dist/",
                        "version-pattern": "Kerberos V5 Release ([\\d\\.]+) - current release",
                        "url-template": "https://kerberos.org/dist/krb5/$major.$minor/krb5-$version.tar.gz"
                    }
                }
            ]
        },
        {
            "name": "libreoffice",
            "sources": [
                {
                    "type": "git",
                    "url": "https://git.libreoffice.org/core",
                    "tag": "libreoffice-24.2.4.2",
                    "disable-fsckobjects": true
                },
                {
                    "type": "archive",
                    "url": "https://archive.apache.org/dist/ant/binaries/apache-ant-1.10.14-bin.tar.bz2",
                    "sha512": "05e9f786044b9ba0dcc5e2b40ed2bd4ecfb25896a453ba78e2d4df18896c6be7d1564fd615f483c90c0d26dd1e0fb507c778f0c10712818b1fc8c9acbc0a26c6",
                    "dest": "ant"
                },
                {
                    "commands": [
                        "mkdir external/tarballs"
                    ],
                    "type": "shell"
                },
                {
                    "url": "https://dev-www.libreoffice.org/src/pdfium-6179.tar.bz2",
                    "sha256": "4d3f08fe0e2fda86246832085426616826dcca0912202874428bfbc24d13d95c",
                    "type": "file",
                    "dest": "external/tarballs",
                    "dest-filename": "pdfium-6179.tar.bz2"
                },
                {
                    "url": "https://dev-www.libreoffice.org/src/xmlsec1-1.3.2.tar.gz",
                    "sha256": "4003c56b3d356d21b1db7775318540fad6bfedaf5f117e8f7c010811219be3cf",
                    "type": "file",
                    "dest": "external/tarballs",
                    "dest-filename": "xmlsec1-1.3.2.tar.gz"
                },
                {
                    "url": "https://dev-www.libreoffice.org/src/368f114c078f94214a308a74c7e991bc-crosextrafonts-20130214.tar.gz",
                    "sha256": "c48d1c2fd613c9c06c959c34da7b8388059e2408d2bb19845dc3ed35f76e4d09",
                    "type": "file",
                    "dest": "external/tarballs",
                    "dest-filename": "368f114c078f94214a308a74c7e991bc-crosextrafonts-20130214.tar.gz"
                },
                {
                    "url": "https://dev-www.libreoffice.org/src/c74b7223abe75949b4af367942d96c7a-crosextrafonts-carlito-20130920.tar.gz",
                    "sha256": "4bd12b6cbc321c1cf16da76e2c585c925ce956a08067ae6f6c64eff6ccfdaf5a",
                    "type": "file",
                    "dest": "external/tarballs",
                    "dest-filename": "c74b7223abe75949b4af367942d96c7a-crosextrafonts-carlito-20130920.tar.gz"
                },
                {
                    "url": "https://dev-www.libreoffice.org/src/33e1e61fab06a547851ed308b4ffef42-dejavu-fonts-ttf-2.37.zip",
                    "sha256": "7576310b219e04159d35ff61dd4a4ec4cdba4f35c00e002a136f00e96a908b0a",
                    "type": "file",
                    "dest": "external/tarballs",
                    "dest-filename": "33e1e61fab06a547851ed308b4ffef42-dejavu-fonts-ttf-2.37.zip"
                },
                {
                    "url": "https://dev-www.libreoffice.org/src/1725634df4bb3dcb1b2c91a6175f8789-GentiumBasic_1102.zip",
                    "sha256": "2f1a2c5491d7305dffd3520c6375d2f3e14931ee35c6d8ae1e8f098bf1a7b3cc",
                    "type": "file",
                    "dest": "external/tarballs",
                    "dest-filename": "1725634df4bb3dcb1b2c91a6175f8789-GentiumBasic_1102.zip"
                },
                {
                    "url": "https://dev-www.libreoffice.org/src/liberation-narrow-fonts-ttf-1.07.6.tar.gz",
                    "sha256": "8879d89b5ff7b506c9fc28efc31a5c0b954bbe9333e66e5283d27d20a8519ea3",
                    "type": "file",
                    "dest": "external/tarballs",
                    "dest-filename": "liberation-narrow-fonts-ttf-1.07.6.tar.gz"
                },
                {
                    "url": "https://dev-www.libreoffice.org/src/liberation-fonts-ttf-2.1.4.tar.gz",
                    "sha256": "26f85412dd0aa9d061504a1cc8aaf0aa12a70710e8d47d8b65a1251757c1a5ef",
                    "type": "file",
                    "dest": "external/tarballs",
                    "dest-filename": "liberation-fonts-ttf-2.1.4.tar.gz"
                },
                {
                    "url": "https://dev-www.libreoffice.org/src/e7a384790b13c29113e22e596ade9687-LinLibertineG-20120116.zip",
                    "sha256": "54adcb2bc8cac0927a647fbd9362f45eff48130ce6e2379dc3867643019e08c5",
                    "type": "file",
                    "dest": "external/tarballs",
                    "dest-filename": "e7a384790b13c29113e22e596ade9687-LinLibertineG-20120116.zip"
                },
                {
                    "url": "https://dev-www.libreoffice.org/src/boost_1_82_0.tar.xz",
                    "sha256": "e48ab6953fbd68ba47234bea5173e62427e9f6a7894e152305142895cfe955de",
                    "type": "file",
                    "dest": "external/tarballs",
                    "dest-filename": "boost_1_82_0.tar.xz"
                },
                {
                    "url": "https://dev-www.libreoffice.org/src/48d647fbd8ef8889e5a7f422c1bfda94-clucene-core-2.3.3.4.tar.gz",
                    "sha256": "ddfdc433dd8ad31b5c5819cc4404a8d2127472a3b720d3e744e8c51d79732eab",
                    "type": "file",
                    "dest": "external/tarballs",
                    "dest-filename": "48d647fbd8ef8889e5a7f422c1bfda94-clucene-core-2.3.3.4.tar.gz"
                },
                {
                    "url": "https://dev-www.libreoffice.org/src/CoinMP-1.8.4.tgz",
                    "sha256": "3459fb0ccbdd39342744684338984ac4cc153fb0434f4cae8cf74bd67490a38d",
                    "type": "file",
                    "dest": "external/tarballs",
                    "dest-filename": "CoinMP-1.8.4.tgz"
                },
                {
                    "url": "https://dev-www.libreoffice.org/src/cppunit-1.15.1.tar.gz",
                    "sha256": "89c5c6665337f56fd2db36bc3805a5619709d51fb136e51937072f63fcc717a7",
                    "type": "file",
                    "dest": "external/tarballs",
                    "dest-filename": "cppunit-1.15.1.tar.gz"
                },
                {
                    "url": "https://dev-www.libreoffice.org/src/Firebird-3.0.7.33374-0.tar.bz2",
                    "sha256": "acb85cedafa10ce106b1823fb236b1b3e5d942a5741e8f8435cc8ccfec0afe76",
                    "type": "file",
                    "dest": "external/tarballs",
                    "dest-filename": "Firebird-3.0.7.33374-0.tar.bz2"
                },
                {
                    "url": "https://dev-www.libreoffice.org/src/glm-0.9.9.8.zip",
                    "sha256": "6bba5f032bed47c73ad9397f2313b9acbfb56253d0d0576b5873d3dcb25e99ad",
                    "type": "file",
                    "dest": "external/tarballs",
                    "dest-filename": "glm-0.9.9.8.zip"
                },
                {
                    "url": "https://dev-www.libreoffice.org/src/gpgme-1.23.2.tar.bz2",
                    "sha256": "9499e8b1f33cccb6815527a1bc16049d35a6198a6c5fae0185f2bd561bce5224",
                    "type": "file",
                    "dest": "external/tarballs",
                    "dest-filename": "gpgme-1.23.2.tar.bz2"
                },
                {
                    "url": "https://dev-www.libreoffice.org/src/libassuan-2.5.7.tar.bz2",
                    "sha256": "0103081ffc27838a2e50479153ca105e873d3d65d8a9593282e9c94c7e6afb76",
                    "type": "file",
                    "dest": "external/tarballs",
                    "dest-filename": "libassuan-2.5.7.tar.bz2"
                },
                {
                    "url": "https://dev-www.libreoffice.org/src/libgpg-error-1.48.tar.bz2",
                    "sha256": "89ce1ae893e122924b858de84dc4f67aae29ffa610ebf668d5aa539045663d6f",
                    "type": "file",
                    "dest": "external/tarballs",
                    "dest-filename": "libgpg-error-1.48.tar.bz2"
                },
                {
                    "url": "https://dev-www.libreoffice.org/src/libabw-0.1.3.tar.xz",
                    "sha256": "e763a9dc21c3d2667402d66e202e3f8ef4db51b34b79ef41f56cacb86dcd6eed",
                    "type": "file",
                    "dest": "external/tarballs",
                    "dest-filename": "libabw-0.1.3.tar.xz"
                },
                {
                    "url": "https://dev-www.libreoffice.org/src/libcdr-0.1.7.tar.xz",
                    "sha256": "5666249d613466b9aa1e987ea4109c04365866e9277d80f6cd9663e86b8ecdd4",
                    "type": "file",
                    "dest": "external/tarballs",
                    "dest-filename": "libcdr-0.1.7.tar.xz"
                },
                {
                    "url": "https://dev-www.libreoffice.org/src/libcmis-0.6.1.tar.xz",
                    "sha256": "d54d19d86153dbc88e2d468f7136269a2cfe71b73227e12fded01d29ac268074",
                    "type": "file",
                    "dest": "external/tarballs",
                    "dest-filename": "libcmis-0.6.1.tar.xz"
                },
                {
                    "url": "https://dev-www.libreoffice.org/src/libe-book-0.1.3.tar.xz",
                    "sha256": "7e8d8ff34f27831aca3bc6f9cc532c2f90d2057c778963b884ff3d1e34dfe1f9",
                    "type": "file",
                    "dest": "external/tarballs",
                    "dest-filename": "libe-book-0.1.3.tar.xz"
                },
                {
                    "url": "https://dev-www.libreoffice.org/src/libetonyek-0.1.10.tar.xz",
                    "sha256": "b430435a6e8487888b761dc848b7981626eb814884963ffe25eb26a139301e9a",
                    "type": "file",
                    "dest": "external/tarballs",
                    "dest-filename": "libetonyek-0.1.10.tar.xz"
                },
                {
                    "url": "https://dev-www.libreoffice.org/src/libexttextcat-3.4.6.tar.xz",
                    "sha256": "6d77eace20e9ea106c1330e268ede70c9a4a89744ddc25715682754eca3368df",
                    "type": "file",
                    "dest": "external/tarballs",
                    "dest-filename": "libexttextcat-3.4.6.tar.xz"
                },
                {
                    "url": "https://dev-www.libreoffice.org/src/libfreehand-0.1.2.tar.xz",
                    "sha256": "0e422d1564a6dbf22a9af598535425271e583514c0f7ba7d9091676420de34ac",
                    "type": "file",
                    "dest": "external/tarballs",
                    "dest-filename": "libfreehand-0.1.2.tar.xz"
                },
                {
                    "url": "https://dev-www.libreoffice.org/src/language-subtag-registry-2024-05-16.tar.bz2",
                    "sha256": "9090265f2bb0f4fb20ec1f7357062c033b9556b362b70c441985c1c905dd9a73",
                    "type": "file",
                    "dest": "external/tarballs",
                    "dest-filename": "language-subtag-registry-2024-05-16.tar.bz2"
                },
                {
                    "url": "https://dev-www.libreoffice.org/src/liblangtag-0.6.7.tar.bz2",
                    "sha256": "5ed6bcd4ae3f3c05c912e62f216cd1a44123846147f729a49fb5668da51e030e",
                    "type": "file",
                    "dest": "external/tarballs",
                    "dest-filename": "liblangtag-0.6.7.tar.bz2"
                },
                {
                    "url": "https://dev-www.libreoffice.org/src/libmspub-0.1.4.tar.xz",
                    "sha256": "ef36c1a1aabb2ba3b0bedaaafe717bf4480be2ba8de6f3894be5fd3702b013ba",
                    "type": "file",
                    "dest": "external/tarballs",
                    "dest-filename": "libmspub-0.1.4.tar.xz"
                },
                {
                    "url": "https://dev-www.libreoffice.org/src/libmwaw-0.3.21.tar.xz",
                    "sha256": "e8750123a78d61b943cef78b7736c8a7f20bb0a649aa112402124fba794fc21c",
                    "type": "file",
                    "dest": "external/tarballs",
                    "dest-filename": "libmwaw-0.3.21.tar.xz"
                },
                {
                    "url": "https://dev-www.libreoffice.org/src/libodfgen-0.1.8.tar.xz",
                    "sha256": "55200027fd46623b9bdddd38d275e7452d1b0ff8aeddcad6f9ae6dc25f610625",
                    "type": "file",
                    "dest": "external/tarballs",
                    "dest-filename": "libodfgen-0.1.8.tar.xz"
                },
                {
                    "url": "https://dev-www.libreoffice.org/src/libpagemaker-0.0.4.tar.xz",
                    "sha256": "66adacd705a7d19895e08eac46d1e851332adf2e736c566bef1164e7a442519d",
                    "type": "file",
                    "dest": "external/tarballs",
                    "dest-filename": "libpagemaker-0.0.4.tar.xz"
                },
                {
                    "url": "https://dev-www.libreoffice.org/src/librevenge-0.0.4.tar.bz2",
                    "sha256": "c51601cd08320b75702812c64aae0653409164da7825fd0f451ac2c5dbe77cbf",
                    "type": "file",
                    "dest": "external/tarballs",
                    "dest-filename": "librevenge-0.0.4.tar.bz2"
                },
                {
                    "url": "https://dev-www.libreoffice.org/src/libstaroffice-0.0.7.tar.xz",
                    "sha256": "f94fb0ad8216f97127bedef163a45886b43c62deac5e5b0f5e628e234220c8db",
                    "type": "file",
                    "dest": "external/tarballs",
                    "dest-filename": "libstaroffice-0.0.7.tar.xz"
                },
                {
                    "url": "https://dev-www.libreoffice.org/src/ltm-1.3.0.tar.xz",
                    "sha256": "296272d93435991308eb73607600c034b558807a07e829e751142e65ccfa9d08",
                    "type": "file",
                    "dest": "external/tarballs",
                    "dest-filename": "ltm-1.3.0.tar.xz"
                },
                {
                    "url": "https://dev-www.libreoffice.org/src/libvisio-0.1.7.tar.xz",
                    "sha256": "8faf8df870cb27b09a787a1959d6c646faa44d0d8ab151883df408b7166bea4c",
                    "type": "file",
                    "dest": "external/tarballs",
                    "dest-filename": "libvisio-0.1.7.tar.xz"
                },
                {
                    "url": "https://dev-www.libreoffice.org/src/libwpd-0.10.3.tar.xz",
                    "sha256": "2465b0b662fdc5d4e3bebcdc9a79027713fb629ca2bff04a3c9251fdec42dd09",
                    "type": "file",
                    "dest": "external/tarballs",
                    "dest-filename": "libwpd-0.10.3.tar.xz"
                },
                {
                    "url": "https://dev-www.libreoffice.org/src/libwpg-0.3.4.tar.xz",
                    "sha256": "b55fda9440d1e070630eb2487d8b8697cf412c214a27caee9df69cec7c004de3",
                    "type": "file",
                    "dest": "external/tarballs",
                    "dest-filename": "libwpg-0.3.4.tar.xz"
                },
                {
                    "url": "https://dev-www.libreoffice.org/src/libwps-0.4.14.tar.xz",
                    "sha256": "365b968e270e85a8469c6b160aa6af5619a4e6c995dbb04c1ecc1b4dd13e80de",
                    "type": "file",
                    "dest": "external/tarballs",
                    "dest-filename": "libwps-0.4.14.tar.xz"
                },
                {
                    "url": "https://dev-www.libreoffice.org/src/libzmf-0.0.2.tar.xz",
                    "sha256": "27051a30cb057fdb5d5de65a1f165c7153dc76e27fe62251cbb86639eb2caf22",
                    "type": "file",
                    "dest": "external/tarballs",
                    "dest-filename": "libzmf-0.0.2.tar.xz"
                },
                {
                    "url": "https://dev-www.libreoffice.org/src/26b3e95ddf3d9c077c480ea45874b3b8-lp_solve_5.5.tar.gz",
                    "sha256": "171816288f14215c69e730f7a4f1c325739873e21f946ff83884b350574e6695",
                    "type": "file",
                    "dest": "external/tarballs",
                    "dest-filename": "26b3e95ddf3d9c077c480ea45874b3b8-lp_solve_5.5.tar.gz"
                },
                {
                    "url": "https://dev-www.libreoffice.org/src/mariadb-connector-c-3.3.8-src.tar.gz",
                    "sha256": "f9f076b4aa9fb22cc94b24f82c80f9ef063805ecd6533a2eb5d5060cf93833e8",
                    "type": "file",
                    "dest": "external/tarballs",
                    "dest-filename": "mariadb-connector-c-3.3.8-src.tar.gz"
                },
                {
                    "url": "https://dev-www.libreoffice.org/src/mdds-2.1.1.tar.xz",
                    "sha256": "1483d90cefb8aa4563c4d0a85cb7b243aa95217d235d422e9ca6722fd5b97e56",
                    "type": "file",
                    "dest": "external/tarballs",
                    "dest-filename": "mdds-2.1.1.tar.xz"
                },
                {
                    "url": "https://dev-www.libreoffice.org/src/NotoKufiArabic-v2.109.zip",
                    "sha256": "1b6880e4b8df09c3b9e246d6084bfd94bf32a0ffff60cf2dcffd3622d0e2d79f",
                    "type": "file",
                    "dest": "external/tarballs",
                    "dest-filename": "NotoKufiArabic-v2.109.zip"
                },
                {
                    "url": "https://dev-www.libreoffice.org/src/NotoSans-v2.012.zip",
                    "sha256": "efef2f66ed2c5e005472cba156bd2afb68063a51bb628c6ee14143edc019d293",
                    "type": "file",
                    "dest": "external/tarballs",
                    "dest-filename": "NotoSans-v2.012.zip"
                },
                {
                    "url": "https://dev-www.libreoffice.org/src/NotoSerif-v2.012.zip",
                    "sha256": "3d4566a0e51e7fc14528f5a1eecc6f12e5ffbbec6484470d3da48b0d8ead345a",
                    "type": "file",
                    "dest": "external/tarballs",
                    "dest-filename": "NotoSerif-v2.012.zip"
                },
                {
                    "url": "https://dev-www.libreoffice.org/src/NotoSansArabic-v2.010.zip",
                    "sha256": "a5a34ac1ea01d0d71c083f99440ebfb1f64224474a0d88bb7ef0e2f8d9a996d2",
                    "type": "file",
                    "dest": "external/tarballs",
                    "dest-filename": "NotoSansArabic-v2.010.zip"
                },
                {
                    "url": "https://dev-www.libreoffice.org/src/NotoNaskhArabic-v2.016.zip",
                    "sha256": "2b6a3f30f21d27bc6b75b40a350221e12e64b753604d613bf3ddf71cdbe331ac",
                    "type": "file",
                    "dest": "external/tarballs",
                    "dest-filename": "NotoNaskhArabic-v2.016.zip"
                },
                {
                    "url": "https://dev-www.libreoffice.org/src/NotoSansHebrew-v2.004.zip",
                    "sha256": "54b5b06b466f4de8ec8e8f988877e297ead271419f6646527046638e434815fe",
                    "type": "file",
                    "dest": "external/tarballs",
                    "dest-filename": "NotoSansHebrew-v2.004.zip"
                },
                {
                    "url": "https://dev-www.libreoffice.org/src/NotoSerifHebrew-v2.004.zip",
                    "sha256": "99523f4f21051495f18cbd5169ed0d1e9b395eefe770fece1844a4a7a00c46da",
                    "type": "file",
                    "dest": "external/tarballs",
                    "dest-filename": "NotoSerifHebrew-v2.004.zip"
                },
                {
                    "url": "https://dev-www.libreoffice.org/src/NotoSansArmenian-v2.008.zip",
                    "sha256": "eab89b99e134177ca6a3f9f0412a7cb812aafceb13175d686b4c45cb237f64ac",
                    "type": "file",
                    "dest": "external/tarballs",
                    "dest-filename": "NotoSansArmenian-v2.008.zip"
                },
                {
                    "url": "https://dev-www.libreoffice.org/src/NotoSerifArmenian-v2.008.zip",
                    "sha256": "b21c198a4c76ae598a304decefb3b5c2a4c2d4c3ae226728eff359185f291c6f",
                    "type": "file",
                    "dest": "external/tarballs",
                    "dest-filename": "NotoSerifArmenian-v2.008.zip"
                },
                {
                    "url": "https://dev-www.libreoffice.org/src/NotoSansGeorgian-v2.003.zip",
                    "sha256": "bd75d1f0b9ef619b5ded0018d6258eeab2f9e976d8f8074bb7890f4e301648bf",
                    "type": "file",
                    "dest": "external/tarballs",
                    "dest-filename": "NotoSansGeorgian-v2.003.zip"
                },
                {
                    "url": "https://dev-www.libreoffice.org/src/NotoSerifGeorgian-v2.003.zip",
                    "sha256": "cfb41a264b97d463bab6807a5be937ba4a6ddcfa93d519a21b98b0ba73ca27d4",
                    "type": "file",
                    "dest": "external/tarballs",
                    "dest-filename": "NotoSerifGeorgian-v2.003.zip"
                },
                {
                    "url": "https://dev-www.libreoffice.org/src/NotoSansLao-v2.003.zip",
                    "sha256": "5a87c31b1a40ef8147c1e84437e5f0ceba2d4dbbfc0b56a65821ad29870da8c0",
                    "type": "file",
                    "dest": "external/tarballs",
                    "dest-filename": "NotoSansLao-v2.003.zip"
                },
                {
                    "url": "https://dev-www.libreoffice.org/src/NotoSerifLao-v2.003.zip",
                    "sha256": "e96a303d3347790b0ef3db274971a989a736ce766ec9ea1bea0e1458568a80b2",
                    "type": "file",
                    "dest": "external/tarballs",
                    "dest-filename": "NotoSerifLao-v2.003.zip"
                },
                {
                    "url": "https://dev-www.libreoffice.org/src/NotoSansLisu-v2.102.zip",
                    "sha256": "b12a1ff762680681b7ce4d98dd29a7f54d90f5bcadd10c955afc640a27b3a268",
                    "type": "file",
                    "dest": "external/tarballs",
                    "dest-filename": "NotoSansLisu-v2.102.zip"
                },
                {
                    "url": "https://dev-www.libreoffice.org/src/openldap-2.6.7.tgz",
                    "sha256": "cd775f625c944ed78a3da18a03b03b08eea73c8aabc97b41bb336e9a10954930",
                    "type": "file",
                    "dest": "external/tarballs",
                    "dest-filename": "openldap-2.6.7.tgz"
                },
                {
                    "url": "https://dev-www.libreoffice.org/src/liborcus-0.19.2.tar.xz",
                    "sha256": "69ed26a00d4aaa7688e62a6e003cbc81928521a45e96605e53365aa499719e39",
                    "type": "file",
                    "dest": "external/tarballs",
                    "dest-filename": "liborcus-0.19.2.tar.xz"
                },
                {
                    "url": "https://dev-www.libreoffice.org/src/poppler-23.09.0.tar.xz",
                    "sha256": "80d1d44dd8bdf4ac1a47d56c5065075eb9991790974b1ed7d14b972acde88e55",
                    "type": "file",
                    "dest": "external/tarballs",
                    "dest-filename": "poppler-23.09.0.tar.xz"
                },
                {
                    "url": "https://dev-www.libreoffice.org/src/poppler-data-0.4.12.tar.gz",
                    "sha256": "c835b640a40ce357e1b83666aabd95edffa24ddddd49b8daff63adb851cdab74",
                    "type": "file",
                    "dest": "external/tarballs",
                    "dest-filename": "poppler-data-0.4.12.tar.gz"
                },
                {
                    "url": "https://dev-www.libreoffice.org/src/postgresql-13.14.tar.bz2",
                    "sha256": "b8df078551898960bd500dc5d38a177e9905376df81fe7f2b660a1407fa6a5ed",
                    "type": "file",
                    "dest": "external/tarballs",
                    "dest-filename": "postgresql-13.14.tar.bz2"
                },
                {
                    "url": "https://dev-www.libreoffice.org/src/a39f6c07ddb20d7dd2ff1f95fa21e2cd-raptor2-2.0.15.tar.gz",
                    "sha256": "ada7f0ba54787b33485d090d3d2680533520cd4426d2f7fb4782dd4a6a1480ed",
                    "type": "file",
                    "dest": "external/tarballs",
                    "dest-filename": "a39f6c07ddb20d7dd2ff1f95fa21e2cd-raptor2-2.0.15.tar.gz"
                },
                {
                    "url": "https://dev-www.libreoffice.org/src/1f5def51ca0026cd192958ef07228b52-rasqal-0.9.33.tar.gz",
                    "sha256": "6924c9ac6570bd241a9669f83b467c728a322470bf34f4b2da4f69492ccfd97c",
                    "type": "file",
                    "dest": "external/tarballs",
                    "dest-filename": "1f5def51ca0026cd192958ef07228b52-rasqal-0.9.33.tar.gz"
                },
                {
                    "url": "https://dev-www.libreoffice.org/src/e5be03eda13ef68aabab6e42aa67715e-redland-1.0.17.tar.gz",
                    "sha256": "de1847f7b59021c16bdc72abb4d8e2d9187cd6124d69156f3326dd34ee043681",
                    "type": "file",
                    "dest": "external/tarballs",
                    "dest-filename": "e5be03eda13ef68aabab6e42aa67715e-redland-1.0.17.tar.gz"
                },
                {
                    "url": "https://dev-www.libreoffice.org/src/ReemKufi-1.2.zip",
                    "sha256": "c4fd68a23c0ea471cc084ae7efe888da372b925cb208eeb0322c26792d2ef413",
                    "type": "file",
                    "dest": "external/tarballs",
                    "dest-filename": "ReemKufi-1.2.zip"
                },
                {
                    "url": "https://dev-www.libreoffice.org/src/libepubgen-0.1.1.tar.xz",
                    "sha256": "03e084b994cbeffc8c3dd13303b2cb805f44d8f2c3b79f7690d7e3fc7f6215ad",
                    "type": "file",
                    "dest": "external/tarballs",
                    "dest-filename": "libepubgen-0.1.1.tar.xz"
                },
                {
                    "url": "https://dev-www.libreoffice.org/src/libqxp-0.0.2.tar.xz",
                    "sha256": "e137b6b110120a52c98edd02ebdc4095ee08d0d5295a94316a981750095a945c",
                    "type": "file",
                    "dest": "external/tarballs",
                    "dest-filename": "libqxp-0.0.2.tar.xz"
                },
                {
                    "url": "https://dev-www.libreoffice.org/src/alef-1.001.tar.gz",
                    "sha256": "b98b67602a2c8880a1770f0b9e37c190f29a7e2ade5616784f0b89fbdb75bf52",
                    "type": "file",
                    "dest": "external/tarballs",
                    "dest-filename": "alef-1.001.tar.gz"
                },
                {
                    "url": "https://dev-www.libreoffice.org/src/Amiri-1.000.zip",
                    "sha256": "926fe1bd7dfde8e55178281f645258bfced6420c951c6f2fd532fd21691bca30",
                    "type": "file",
                    "dest": "external/tarballs",
                    "dest-filename": "Amiri-1.000.zip"
                },
                {
                    "url": "https://dev-www.libreoffice.org/src/culmus-0.133.tar.gz",
                    "sha256": "c0c6873742d07544f6bacf2ad52eb9cb392974d56427938dc1dfbc8399c64d05",
                    "type": "file",
                    "dest": "external/tarballs",
                    "dest-filename": "culmus-0.133.tar.gz"
                },
                {
                    "url": "https://dev-www.libreoffice.org/src/libre-hebrew-1.0.tar.gz",
                    "sha256": "f596257c1db706ce35795b18d7f66a4db99d427725f20e9384914b534142579a",
                    "type": "file",
                    "dest": "external/tarballs",
                    "dest-filename": "libre-hebrew-1.0.tar.gz"
                },
                {
                    "url": "https://dev-www.libreoffice.org/src/Scheherazade-2.100.zip",
                    "sha256": "251c8817ceb87d9b661ce1d5b49e732a0116add10abc046be4b8ba5196e149b5",
                    "type": "file",
                    "dest": "external/tarballs",
                    "dest-filename": "Scheherazade-2.100.zip"
                },
                {
                    "url": "https://dev-www.libreoffice.org/src/beeca87be45ec87d241ddd0e1bad80c1-bsh-2.0b6-src.zip",
                    "sha256": "9e93c73e23aff644b17dfff656444474c14150e7f3b38b19635e622235e01c96",
                    "type": "file",
                    "dest": "external/tarballs",
                    "dest-filename": "beeca87be45ec87d241ddd0e1bad80c1-bsh-2.0b6-src.zip"
                },
                {
                    "url": "https://dev-www.libreoffice.org/src/ba2930200c9f019c2d93a8c88c651a0f-flow-engine-0.9.4.zip",
                    "sha256": "233f66e8d25c5dd971716d4200203a612a407649686ef3b52075d04b4c9df0dd",
                    "type": "file",
                    "dest": "external/tarballs",
                    "dest-filename": "ba2930200c9f019c2d93a8c88c651a0f-flow-engine-0.9.4.zip"
                },
                {
                    "url": "https://dev-www.libreoffice.org/src/d8bd5eed178db6e2b18eeed243f85aa8-flute-1.1.6.zip",
                    "sha256": "1b5b24f7bc543c0362b667692f78db8bab4ed6dafc6172f104d0bd3757d8a133",
                    "type": "file",
                    "dest": "external/tarballs",
                    "dest-filename": "d8bd5eed178db6e2b18eeed243f85aa8-flute-1.1.6.zip"
                },
                {
                    "url": "https://dev-www.libreoffice.org/src/17410483b5b5f267aa18b7e00b65e6e0-hsqldb_1_8_0.zip",
                    "sha256": "d30b13f4ba2e3b6a2d4f020c0dee0a9fb9fc6fbcc2d561f36b78da4bf3802370",
                    "type": "file",
                    "dest": "external/tarballs",
                    "dest-filename": "17410483b5b5f267aa18b7e00b65e6e0-hsqldb_1_8_0.zip"
                },
                {
                    "url": "https://dev-www.libreoffice.org/src/eeb2c7ddf0d302fba4bfc6e97eac9624-libbase-1.1.6.zip",
                    "sha256": "75c80359c9ce343c20aab8a36a45cb3b9ee7c61cf92c13ae45399d854423a9ba",
                    "type": "file",
                    "dest": "external/tarballs",
                    "dest-filename": "eeb2c7ddf0d302fba4bfc6e97eac9624-libbase-1.1.6.zip"
                },
                {
                    "url": "https://dev-www.libreoffice.org/src/3bdf40c0d199af31923e900d082ca2dd-libfonts-1.1.6.zip",
                    "sha256": "e0531091787c0f16c83965fdcbc49162c059d7f0c64669e7f119699321549743",
                    "type": "file",
                    "dest": "external/tarballs",
                    "dest-filename": "3bdf40c0d199af31923e900d082ca2dd-libfonts-1.1.6.zip"
                },
                {
                    "url": "https://dev-www.libreoffice.org/src/3404ab6b1792ae5f16bbd603bd1e1d03-libformula-1.1.7.zip",
                    "sha256": "5826d1551bf599b85742545f6e01a0079b93c1b2c8434bf409eddb3a29e4726b",
                    "type": "file",
                    "dest": "external/tarballs",
                    "dest-filename": "3404ab6b1792ae5f16bbd603bd1e1d03-libformula-1.1.7.zip"
                },
                {
                    "url": "https://dev-www.libreoffice.org/src/db60e4fde8dd6d6807523deb71ee34dc-liblayout-0.2.10.zip",
                    "sha256": "e1fb87f3f7b980d33414473279615c4644027e013012d156efa538bc2b031772",
                    "type": "file",
                    "dest": "external/tarballs",
                    "dest-filename": "db60e4fde8dd6d6807523deb71ee34dc-liblayout-0.2.10.zip"
                },
                {
                    "url": "https://dev-www.libreoffice.org/src/97b2d4dba862397f446b217e2b623e71-libloader-1.1.6.zip",
                    "sha256": "3d853b19b1d94a6efa69e7af90f7f2b09ecf302913bee3da796c15ecfebcfac8",
                    "type": "file",
                    "dest": "external/tarballs",
                    "dest-filename": "97b2d4dba862397f446b217e2b623e71-libloader-1.1.6.zip"
                },
                {
                    "url": "https://dev-www.libreoffice.org/src/8ce2fcd72becf06c41f7201d15373ed9-librepository-1.1.6.zip",
                    "sha256": "abe2c57ac12ba45d83563b02e240fa95d973376de2f720aab8fe11f2e621c095",
                    "type": "file",
                    "dest": "external/tarballs",
                    "dest-filename": "8ce2fcd72becf06c41f7201d15373ed9-librepository-1.1.6.zip"
                },
                {
                    "url": "https://dev-www.libreoffice.org/src/f94d9870737518e3b597f9265f4e9803-libserializer-1.1.6.zip",
                    "sha256": "05640a1f6805b2b2d7e2cb9c50db9a5cb084e3c52ab1a71ce015239b4a1d4343",
                    "type": "file",
                    "dest": "external/tarballs",
                    "dest-filename": "f94d9870737518e3b597f9265f4e9803-libserializer-1.1.6.zip"
                },
                {
                    "url": "https://dev-www.libreoffice.org/src/ace6ab49184e329db254e454a010f56d-libxml-1.1.7.zip",
                    "sha256": "7d2797fe9f79a77009721e3f14fa4a1dec17a6d706bdc93f85f1f01d124fab66",
                    "type": "file",
                    "dest": "external/tarballs",
                    "dest-filename": "ace6ab49184e329db254e454a010f56d-libxml-1.1.7.zip"
                },
                {
                    "url": "https://dev-www.libreoffice.org/src/798b2ffdc8bcfe7bca2cf92b62caf685-rhino1_5R5.zip",
                    "sha256": "1fb458d6aab06932693cc8a9b6e4e70944ee1ff052fa63606e3131df34e21753",
                    "type": "file",
                    "dest": "external/tarballs",
                    "dest-filename": "798b2ffdc8bcfe7bca2cf92b62caf685-rhino1_5R5.zip"
                },
                {
                    "url": "https://dev-www.libreoffice.org/src/39bb3fcea1514f1369fcfc87542390fd-sacjava-1.3.zip",
                    "sha256": "085f2112c51fa8c1783fac12fbd452650596415121348393bb51f0f7e85a9045",
                    "type": "file",
                    "dest": "external/tarballs",
                    "dest-filename": "39bb3fcea1514f1369fcfc87542390fd-sacjava-1.3.zip"
                },
                {
                    "url": "https://dev-www.libreoffice.org/src/35c94d2df8893241173de1d16b6034c0-swingExSrc.zip",
                    "sha256": "64585ac36a81291a58269ec5347e7e3e2e8596dbacb9221015c208191333c6e1",
                    "type": "file",
                    "dest": "external/tarballs",
                    "dest-filename": "35c94d2df8893241173de1d16b6034c0-swingExSrc.zip"
                },
                {
                    "url": "https://dev-www.libreoffice.org/src/libnumbertext-1.0.11.tar.xz",
                    "sha256": "5dcb4db3b2340f81f601ce86d8d76b69e34d70f84f804192c901e4b7f84d5fb0",
                    "type": "file",
                    "dest": "external/tarballs",
                    "dest-filename": "libnumbertext-1.0.11.tar.xz"
                },
                {
                    "url": "https://dev-www.libreoffice.org/src/libatomic_ops-7.8.0.tar.gz",
                    "sha256": "15676e7674e11bda5a7e50a73f4d9e7d60452271b8acf6fd39a71fefdf89fa31",
                    "type": "file",
                    "dest": "external/tarballs",
                    "dest-filename": "libatomic_ops-7.8.0.tar.gz"
                },
                {
                    "url": "https://dev-www.libreoffice.org/src/skia-m116-2ddcf183eb260f63698aa74d1bb380f247ad7ccd.tar.xz",
                    "sha256": "2223ebce534458a37826e8fe4f24635b0712cde7ed1bd3208f089f6fdd796e01",
                    "type": "file",
                    "dest": "external/tarballs",
                    "dest-filename": "skia-m116-2ddcf183eb260f63698aa74d1bb380f247ad7ccd.tar.xz"
                },
                {
                    "url": "https://dev-www.libreoffice.org/src/dragonbox-1.1.3.tar.gz",
                    "sha256": "09d63b05e9c594ec423778ab59b7a5aa1d76fdd71d25c7048b0258c4ec9c3384",
                    "type": "file",
                    "dest": "external/tarballs",
                    "dest-filename": "dragonbox-1.1.3.tar.gz"
                },
                {
                    "url": "https://dev-www.libreoffice.org/src/dtoa-20180411.tgz",
                    "sha256": "0082d0684f7db6f62361b76c4b7faba19e0c7ce5cb8e36c4b65fea8281e711b4",
                    "type": "file",
                    "dest": "external/tarballs",
                    "dest-filename": "dtoa-20180411.tgz"
                },
                {
                    "url": "https://dev-www.libreoffice.org/src/box2d-2.4.1.tar.gz",
                    "sha256": "d6b4650ff897ee1ead27cf77a5933ea197cbeef6705638dd181adc2e816b23c2",
                    "type": "file",
                    "dest": "external/tarballs",
                    "dest-filename": "box2d-2.4.1.tar.gz"
                },
                {
                    "url": "https://dev-www.libreoffice.org/src/zxing-cpp-2.1.0.tar.gz",
                    "sha256": "6d54e403592ec7a143791c6526c1baafddf4c0897bb49b1af72b70a0f0c4a3fe",
                    "type": "file",
                    "dest": "external/tarballs",
                    "dest-filename": "zxing-cpp-2.1.0.tar.gz"
                },
                {
                    "url": "https://dev-www.libreoffice.org/src/frozen-1.1.1.tar.gz",
                    "sha256": "f7c7075750e8fceeac081e9ef01944f221b36d9725beac8681cbd2838d26be45",
                    "type": "file",
                    "dest": "external/tarballs",
                    "dest-filename": "frozen-1.1.1.tar.gz"
                },
                {
                    "url": "https://dev-www.libreoffice.org/src/Java-WebSocket-1.5.4.tar.gz",
                    "sha256": "a6828b35d1f938fee2335945f3d3c563cbbfa58ce7eb0bf72778d0fa7a550720",
                    "type": "file",
                    "dest": "external/tarballs",
                    "dest-filename": "Java-WebSocket-1.5.4.tar.gz"
                },
                {
                    "url": "https://dev-www.libreoffice.org/src/zxcvbn-c-2.5.tar.gz",
                    "sha256": "77d6c6ecb35952a8d8ce7f736b7a2bf466275c48210e309b73782d6b7e84dffd",
                    "type": "file",
                    "dest": "external/tarballs",
                    "dest-filename": "zxcvbn-c-2.5.tar.gz"
                },
                {
                    "url": "https://dev-www.libreoffice.org/src/phc-winner-argon2-20190702.tar.gz",
                    "sha256": "daf972a89577f8772602bf2eb38b6a3dd3d922bf5724d45e7f9589b5e830442c",
                    "type": "file",
                    "dest": "external/tarballs",
                    "dest-filename": "phc-winner-argon2-20190702.tar.gz"
                },
                {
                    "url": "https://dev-www.libreoffice.org/src/libpng-1.6.43.tar.xz",
                    "sha256": "6a5ca0652392a2d7c9db2ae5b40210843c0bbc081cbd410825ab00cc59f14a6c",
                    "type": "file",
                    "dest": "external/tarballs",
                    "dest-filename": "libpng-1.6.43.tar.xz"
                },
                {
                    "url": "https://dev-www.libreoffice.org/extern/f543e6e2d7275557a839a164941c0a86e5f2c3f2a0042bfc434c88c6dde9e140-opens___.ttf",
                    "sha256": "f543e6e2d7275557a839a164941c0a86e5f2c3f2a0042bfc434c88c6dde9e140",
                    "type": "file",
                    "dest": "external/tarballs",
                    "dest-filename": "f543e6e2d7275557a839a164941c0a86e5f2c3f2a0042bfc434c88c6dde9e140-opens___.ttf"
                }
            ],
            "buildsystem": "simple",
            "build-commands": [
                "./autogen.sh --prefix=/run/build/libreoffice/inst --with-distro=LibreOfficeFlatpak --with-gdrive-client-id=280867422816-9jc83t6phkfb2q8p94dtk8kr5fa8af3r.apps.googleusercontent.com --with-gdrive-client-secret=Hnzikj7HqdqsUYLru4jmFo1p --disable-pdfimport --disable-crashdump --disable-odk --disable-dbus --disable-gui --disable-sdremote --disable-sdremote-bluetooth --disable-cups --disable-extension-update --disable-dconf --disable-skia --without-helppack-integration",
                "make",
                "make distro-pack-install",
                "make cmd cmd='$(SRCDIR)/solenv/bin/assemble-flatpak.sh'",
                "printf '<?xml version=\"1.0\"?>\\n<oor:data xmlns:xs=\"http://www.w3.org/2001/XMLSchema\" xmlns:xsi=\"http://www.w3.org/2001/XMLSchema-instance\" xmlns:oor=\"http://openoffice.org/2001/registry\"><dependency file=\"main\"/><oor:component-data oor:name=\"Common\" oor:package=\"org.openoffice.Office\"><node oor:name=\"Misc\"><prop oor:name=\"UseOpenCL\"><value>false</value></prop></node></oor:component-data></oor:data>' >/app/libreoffice/share/registry/flatpak.xcd"
            ]
        }
    ]
}
